{
  "hash": "08f66477db0c964ad9c849a61dc6d203",
  "result": {
    "markdown": "# How to Use this Book {#sec-instructions}\n\n\n\n\n\n## Some exciting content {#sec-exciting-content}\n\n## Setup {#sec-setup}\n\n### Install booktem\n\n``` r\n# install.packages(\"devtools\")\ndevtools::install_github(\"debruine/booktem\")\n```\n\n### Quarto Options\n\nThe file `_quarto.yml` contains various options that you can set to change the format and look of your book.\n\n#### Project Options\n\nThe `project` key defines the inputs and outputs for the book ([quarto reference](https://quarto.org/docs/reference/projects/books.html#project)).\n\n::: {.callout-note collapse=\"true\"}\n## project key\n\n``` yaml\nproject:\n  type: book\n  output-dir: docs\n  resources: resources \n```\n:::\n\nThe `output-dir` key defines the directory where the rendered web files will be saved. This is set to `docs` in order to be compatible with [GitHub Pages](https://pages.github.com/), but you can change this if you are working with a different repository that expects the web files to be in a different directory.\n\nThe `resources` key specifies a directory that is copied verbatim to the output directory. This is where you should put, for example, data files that you want to make accessible online (sometimes they don't automatically copy over when linked).\n\n#### Book Options\n\nThe `book` key defines options that affect the look and function of the book ([quarto reference](https://quarto.org/docs/reference/projects/books.html#section)).\n\n::: {.callout-note collapse=\"true\"}\n## book key\n\n``` yaml\nbook:\n  title: Book\n  subtitle: ~\n  author: ~\n  doi: ~\n  license: CC-BY 4.0\n  description: ~\n  cover-image: images/logos/logo.png\n  image: images/logos/logo.png\n  favicon: images/logos/logo.png\n  cookie-consent: false\n  google-analytics: ~\n  page-navigation: true\n  search: true\n  # comments:\n  #   hypothesis:\n  #     theme: clean\n  #     openSidebar: false\n  downloads: ~\n  sharing: ~\n  sidebar:\n    title: ~\n    logo: ~\n    search: true\n    contents: ~\n    style: floating\n    background: ~\n    foreground: ~\n    border: true\n    alignment: left\n    collapse-level: 3\n    pinned: true\n    header: \"\"\n    footer: \"\"\n  margin-header: ~\n  page-footer:\n    left: ~\n    right: ~\n  chapters:\n  - index.qmd\n  - instructions.qmd\n  appendices:\n  - references.qmd\n```\n:::\n\n#### html Options\n\nThe `format` key defines options for specific formats, such as html or pdf. We'll only be using html here ([quarto reference](https://quarto.org/docs/reference/formats/html.html#format-options)).\n\n::: {.callout-note collapse=\"true\"}\n## format:html key\n\n``` yaml\nformat:\n  html:\n    theme:\n      light:\n      - flatly\n      - include/light.scss\n      dark:\n      - darkly\n      - include/dark.scss\n    css:\n    - https://use.fontawesome.com/releases/v5.13.0/css/all.css\n    - include/booktem.css\n    - include/glossary.css\n    - include/style.css\n    df-print: kable\n    code-link: true\n    code-fold: false\n    code-line-numbers: true\n    code-overflow: wrap\n    code-copy: hover\n    highlight-style: a11y\n    mainfont: ~\n    monofont: ~\n    include-after-body: [include/script.js]\n\n```\n:::\n\n### Crossrefs {#sec-crossrefs}\n\nSection links must start with `sec-` and look like this: @sec-snippets.\n\n\n\n````md\n## Section Title {#sec-section-title}\n\nInternal links look like this: @sec-section-title\n````\n\n\nFigure links must start with `fig-` and look like this: @fig-poisson. \n\n\n::: {.cell layout-align=\"center\"}\n::: {.cell-output-display}\n![A histogram of a Poisson distribution with lambda = 3](instructions_files/figure-html/fig-poisson-1.png){#fig-poisson fig-align='center' width=100%}\n:::\n:::\n\n\nTable links must start with `tbl-` and look like this: @tbl-authors. \n\n\n::: {#tbl-authors .cell layout-align=\"center\" tbl-cap='The authors of this book'}\n::: {.cell-output-display}\n<div class=\"kable-table\">\n\n|first_name |last_name |\n|:----------|:---------|\n|Lisa       |DeBruine  |\n|Daniël     |Lakens    |\n\n</div>\n:::\n:::\n\n\n\nSee the [quarto documentation](https://quarto.org/docs/books/book-crossrefs.html){target=\"_blank\"} for more information.\n\n### References {#sec-refs}\n\nZotero export - keep updated\n\n\n### Snippets {#sec-snippets}\n\nSnippets in RStudio provide shortcuts to syntax. For example, in an RMarkdown document, type \"r\" and shift-tab to expand a code chunk.\n\nYou can add your own snippets. Under the **`Tools`** menu, choose **`Edit Code Snippets...`** and paste the following text into the end of the appropriate sections.\n\n#### Markdown\n\n```\nsnippet gls\n\tr glossary(\"${1:term}\")\n\t\nsnippet gls2\n\tr glossary(\"${1:term}\", \"${2:display}\")\n\t\nsnippet h1\n\t# ${1:title} {#sec-${2:ref}}\n\t\nsnippet h2\n\t## ${1:title} {#sec-${2:ref}}\n\t\nsnippet h3\n\t### ${1:title} {#sec-${2:ref}}\n\t\nsnippet h4\n\t#### ${1:title} {#sec-${2:ref}}\n\t\nsnippet h5\n\t##### ${1:title} {#sec-${2:ref}}\n```\n\n### Customize\n\n#### Page Footer\n\nThe default footer includes license YEAR, author, and github and twitter icons, but you can customize this in the _quarto.yml file under `page-footer:`. See  the [quarto documentation](https://quarto.org/docs/reference/projects/websites.html#footer) for more options. See the available icons at <https://icons.getbootstrap.com/>.\n\n\n## Layout {#sec-layout}\n\n### Conventions {#sec-conventions}\n\nThis book will use the following conventions:\n\n* Code: `list(number = 1, letter = \"A\")`\n* File paths: <path>data/sales.csv</path>\n* Menu/interface options: <if>Tools > Global Options... > Pane Layout</if>\n* R Packages: <pkg>tidyverse</pkg>\n* Glossary items: <a class='glossary'>alpha<span class='def'>The threshold chosen in Neyman-Pearson hypothesis testing to distinguish test results that lead to the decision to reject the null hypothesis, or not, based on the desired upper bound of the Type 1 error rate. An alpha level of 5% it most commonly used, but other alpha levels can be used as long as they are determined and preregistered by the researcher before the data is analyzed.</span></a>\n* Citations: @usethis\n* Internal links: @sec-conventions\n* External links: [Mastering Shiny](https://mastering-shiny.org/){target=\"_blank\"}\n* Mac-specific: <mac>Cmd-Shift-F10</mac> \n* Windows-specific: <pc>Ctl-Shift-F10</pc>\n\nA list of mac and windows [keyboard shortcuts](https://support.posit.co/hc/en-us/articles/200711853-Keyboard-Shortcuts-in-the-RStudio-IDE).\n\n\n### Figures {#sec-figures}\n\nIt is best practice to set a custom ggplot theme, then each subsequent plot will use that theme. You can put this code in <path>R/my_setup.R</path> after loading <pkg>ggplot2</pkg>.\n\nStart with a built-in theme and then add any tweaks with the `theme()` function.\n\n\n::: {.cell layout-align=\"center\"}\n\n```{.r .cell-code}\nlibrary(ggplot2)\n```\n\n::: {.cell-output .cell-output-stderr}\n```\nWarning: package 'ggplot2' was built under R version 4.3.1\n```\n:::\n\n```{.r .cell-code}\nmy_theme <- theme_minimal(base_size = 16) + \n            theme(panel.background = element_rect(fill = \"red\", \n                                                  color = \"black\", \n                                                  size = 5),\n                  panel.grid = element_blank())\n```\n\n::: {.cell-output .cell-output-stderr}\n```\nWarning: The `size` argument of `element_rect()` is deprecated as of ggplot2 3.4.0.\nℹ Please use the `linewidth` argument instead.\n```\n:::\n\n```{.r .cell-code}\ntheme_set(my_theme)\n```\n:::\n\n::: {.cell layout-align=\"center\" fig.asp='1'}\n\n```{.r .cell-code}\nggplot(midwest, aes(popdensity, percollege)) +\n  geom_point(alpha = 0.5) +\n  labs(x = \"Population Density\", y = \"Percent College Educated\")\n```\n\n::: {.cell-output-display}\n![Demographic information of midwest counties from 2000 US census](instructions_files/figure-html/fig-diamonds-1.png){#fig-diamonds fig-align='center' width=100%}\n:::\n:::\n\n\n### Tables {#sec-tables}\n\nShorter tables and PDFs print using <pkg>kableExtra</pkg> and longer tables in HTML format use <pkg>DT</pkg> for interactive paged tables.\n\n\n::: {#tbl-short .cell layout-align=\"center\" tbl-cap='Shorter table'}\n\n```{.r .cell-code}\nhead(beaver1)\n```\n\n::: {.cell-output-display}\n<div class=\"kable-table\">\n\n| day| time|  temp| activ|\n|---:|----:|-----:|-----:|\n| 346|  840| 36.33|     0|\n| 346|  850| 36.34|     0|\n| 346|  900| 36.35|     0|\n| 346|  910| 36.42|     0|\n| 346|  920| 36.55|     0|\n| 346|  930| 36.69|     0|\n\n</div>\n:::\n:::\n\n::: {#tbl-long .cell layout-align=\"center\" tbl-cap='Longer table'}\n\n```{.r .cell-code}\n# DT::datatable(beaver1)\n```\n:::\n\n\n### Callout boxes {#sec-callout}\n\nSee the [quarto reference](https://quarto.org/docs/authoring/callouts.html) for more options.]{.aside}\n\n::: {.callout-note}\n.callout-note: Informational asides.\n:::\n\n::: {.callout-note collapse=\"true\"}\n## Click to expand\ncolapse = \"true\": Expanded!\n:::\n\n::: {.callout-tip}\n.callout-tip: Tips\n:::\n\n::: {.callout-warning}\n.callout-warning: Notes to warn you about something.\n:::\n\n::: {.callout-caution}\n.callout-caution: Notes about things that could cause serious errors.\n:::\n\n::: {.callout-important}\n.callout-important: Notes about things that are important.\n:::\n\n\n### Code and Output {#sec-code-output}\n\n\n::: {.cell layout-align=\"center\"}\n\n```{.r .cell-code}\n# code chunks\npaste(\"Code\", \"Output\", 1, sep = \" \")\n```\n\n::: {.cell-output .cell-output-stdout}\n```\n[1] \"Code Output 1\"\n```\n:::\n:::\n\n::: {.cell layout-align=\"center\" filename='Filename or header'}\n\n```{.r .cell-code}\n# code chunks with filename\na <- 1\n```\n:::\n\n::: {.cell layout-align=\"center\" verbatim='r, fig.width = 2, fig.height = 2'}\n<div class='verbatim'><pre class='sourceCode r'><code class='sourceCode R'>&#96;&#96;&#96;{r, fig.width = 2, fig.height = 2}</code></pre>\n\n```{.r .cell-code}\n# code chunks with visible headers\nhist(rnorm(100000))\n```\n\n<pre class='sourceCode r'><code class='sourceCode R'>&#96;&#96;&#96;</code></pre></div>\n:::\n\n\n````md\n## Markdown Example\n\n* Inline code: `r nrow(iris)`\n* *Italics*\n* **Bold**\n* [Linked text](https://psyteachr.github.io)\n````\n\n\n\n\n### Fonts {#sec-fonts}\n\n\n\n\n## Extras {#sec-extras}\n\n### Glossary {#sec-glossary}\n\nBooks are set up with lightweight glossary functions from the [glossary](https://debruine.github.io/glossary/) package. \n\n\n::: {.cell layout-align=\"center\"}\n\n```{.r .cell-code}\n# code in R/my_setup.R to initialise the glossary on each page\nlibrary(glossary)\nglossary_path(\"include/glossary.yml\")\nglossary_popup(\"click\") # \"click\", \"hover\" or \"none\"\n```\n:::\n\n\nEdit the file `glossary.yml` with your glossary terms like this:\n\n``` yaml\nalpha: |\n  The threshold chosen in Neyman-Pearson hypothesis testing to distinguish test results that lead to the decision to reject the null hypothesis, or not, based on the desired upper bound of the Type 1 error rate. An alpha level of 5% it most commonly used, but other alpha levels can be used as long as they are determined and preregistered by the researcher before the data is analyzed.\np-value: |\n  The probability of the observed data, or more extreme data, if the null hypothesis is true. The lower the p-value, the higher the test statistic, and less likely it is to observe the data if the null hypothesis is true.\n```\n\nLook up a term from the glossary file with `glossary(\"alpha\")`: <a class='glossary'>alpha<span class='def'>The threshold chosen in Neyman-Pearson hypothesis testing to distinguish test results that lead to the decision to reject the null hypothesis, or not, based on the desired upper bound of the Type 1 error rate. An alpha level of 5% it most commonly used, but other alpha levels can be used as long as they are determined and preregistered by the researcher before the data is analyzed.</span></a>\n\nDisplay a different value for the term with `glossary(\"alpha\", \"$\\\\alpha$\")`: <a class='glossary'>$\\alpha$<span class='def'>The threshold chosen in Neyman-Pearson hypothesis testing to distinguish test results that lead to the decision to reject the null hypothesis, or not, based on the desired upper bound of the Type 1 error rate. An alpha level of 5% it most commonly used, but other alpha levels can be used as long as they are determined and preregistered by the researcher before the data is analyzed.</span></a>\n\nUse an inline definition instead of the glossary file with `glossary(\"beta\", def = \"The second letter of the Greek alphabet\")`: <a class='glossary'>beta<span class='def'>The second letter of the Greek alphabet</span></a>\n\nJust show the definition with `glossary(\"p-value\", show = \"def\")`: The probability of the observed data, or more extreme data, if the null hypothesis is true. The lower the p-value, the higher the test statistic, and less likely it is to observe the data if the null hypothesis is true.\n\nShow the table of terms defined on this page with `glossary_table()`:\n\n\n::: {.cell layout-align=\"center\"}\n::: {.cell-output-display}\n`````{=html}\n<table class=\"table\" style=\"margin-left: auto; margin-right: auto;\">\n <thead>\n  <tr>\n   <th style=\"text-align:left;\"> term </th>\n   <th style=\"text-align:left;\"> definition </th>\n  </tr>\n </thead>\n<tbody>\n  <tr>\n   <td style=\"text-align:left;\"> alpha </td>\n   <td style=\"text-align:left;\"> The threshold chosen in Neyman-Pearson hypothesis testing to distinguish test results that lead to the decision to reject the null hypothesis, or not, based on the desired upper bound of the Type 1 error rate. An alpha level of 5% it most commonly used, but other alpha levels can be used as long as they are determined and preregistered by the researcher before the data is analyzed. </td>\n  </tr>\n  <tr>\n   <td style=\"text-align:left;\"> beta </td>\n   <td style=\"text-align:left;\"> The second letter of the Greek alphabet </td>\n  </tr>\n  <tr>\n   <td style=\"text-align:left;\"> p-value </td>\n   <td style=\"text-align:left;\"> The probability of the observed data, or more extreme data, if the null hypothesis is true. The lower the p-value, the higher the test statistic, and less likely it is to observe the data if the null hypothesis is true. </td>\n  </tr>\n</tbody>\n</table>\n\n`````\n:::\n:::\n\n\n### FontAwesome\n\nThe [fontAwesome quarto extension](https://github.com/quarto-ext/fontawesome) allows you to use the [free icons](https://fontawesome.com/search?m=free) with syntax like:\n\n```\n{{< fa dragon >}}\n{{< fa brands github size = 5x title=\"(github logo)\" >}}\n```\n\nTo install it, just run this code in the Terminal pane of RStudio (not the Console pane).\n\n``` bash\nquarto install extension quarto-ext/fontawesome\n```\n\n",
    "supporting": [
      "instructions_files"
    ],
    "filters": [
      "rmarkdown/pagebreak.lua"
    ],
    "includes": {
      "include-in-header": [
        "<script src=\"site_libs/kePrint-0.0.1/kePrint.js\"></script>\r\n<link href=\"site_libs/lightable-0.0.1/lightable.css\" rel=\"stylesheet\" />\r\n"
      ]
    },
    "engineDependencies": {},
    "preserve": {},
    "postProcess": true
  }
}